[
    {
        "fields": {
            "conference": 1,
            "end_date": "2018-01-22",
            "name": "Open Hardware Miniconf",
            "slug": "openhardware-miniconf",
            "start_date": "2018-01-22"
        },
        "model": "symposion_conference.section",
        "pk": 3
    },
    {
        "fields": {
            "conference": 1,
            "end_date": "2018-01-22",
            "name": "Kernel Miniconf",
            "slug": "kernel-miniconf",
            "start_date": "2018-01-22"
        },
        "model": "symposion_conference.section",
        "pk": 4
    },
    {
        "fields": {
            "conference": 1,
            "end_date": "2018-01-22",
            "name": "LCA Games Miniconf: Games and FOSS Miniconf",
            "slug": "games-miniconf",
            "start_date": "2018-01-22"
        },
        "model": "symposion_conference.section",
        "pk": 5
    },
    {
        "fields": {
            "conference": 1,
            "end_date": "2018-01-22",
            "name": "Open Source and Bioinformatics Miniconf",
            "slug": "bioinformatics-miniconf",
            "start_date": "2018-01-22"
        },
        "model": "symposion_conference.section",
        "pk": 6
    },
    {
        "fields": {
            "conference": 1,
            "end_date": "2018-01-22",
            "name": "Community Leadership Summit X at LCA",
            "slug": "ClsXLCA-miniconf",
            "start_date": "2018-01-22"
        },
        "model": "symposion_conference.section",
        "pk": 7
    },
    {
        "fields": {
            "conference": 1,
            "end_date": "2018-01-22",
            "name": "Developers Developers Miniconf",
            "slug": "devdev-miniconf",
            "start_date": "2018-01-22"
        },
        "model": "symposion_conference.section",
        "pk": 8
    },
    {
        "fields": {
            "conference": 1,
            "end_date": "2018-01-23",
            "name": "Real World Functional Programming Miniconf",
            "slug": "funcprog-miniconf",
            "start_date": "2018-01-23"
        },
        "model": "symposion_conference.section",
        "pk": 9
    },
    {
        "fields": {
            "conference": 1,
            "end_date": "2018-01-23",
            "name": "Sysadmin Miniconf",
            "slug": "sysadmin-miniconf",
            "start_date": "2018-01-23"
        },
        "model": "symposion_conference.section",
        "pk": 10
    },
    {
        "fields": {
            "conference": 1,
            "end_date": "2018-01-23",
            "name": "Open Education Miniconf",
            "slug": "opened-miniconf",
            "start_date": "2018-01-23"
        },
        "model": "symposion_conference.section",
        "pk": 11
    },
    {
        "fields": {
            "conference": 1,
            "end_date": "2018-01-23",
            "name": "Access and memory: Open GLAM and Open Source Miniconf",
            "slug": "openglam-miniconf",
            "start_date": "2018-01-23"
        },
        "model": "symposion_conference.section",
        "pk": 12
    },
    {
        "fields": {
            "conference": 1,
            "end_date": "2018-01-23",
            "name": "Create hardware with FPGAs, Linux and Python Miniconf",
            "slug": "fpga-miniconf",
            "start_date": "2018-01-23"
        },
        "model": "symposion_conference.section",
        "pk": 13
    },
    {
        "fields": {
            "conference": 1,
            "end_date": "2018-01-23",
            "name": "Art+Tech Miniconf",
            "slug": "arttech-miniconf",
            "start_date": "2018-01-23"
        },
        "model": "symposion_conference.section",
        "pk": 14
    }
]
